com/gameservice/outcome/dto/ParticipantsSaveDto.class
com/gameservice/outcome/util/RummyOutcomeUtils.class
com/gameservice/outcome/model/RoomModel.class
com/gameservice/outcome/config/SwaggerConfig.class
com/gameservice/outcome/util/ResponseData.class
com/gameservice/outcome/constant/EnumConstants$ROOM_TYPE.class
com/gameservice/outcome/service/TableService.class
com/gameservice/outcome/repository/GameRepository.class
com/gameservice/outcome/model/OutcomeModel.class
com/gameservice/outcome/dto/RummyOutcomeDto.class
com/gameservice/tournament/dto/TournamentCreateDto.class
com/gameservice/turn/constant/EnumConstants$TURN_STATUS.class
com/gameservice/turn/dto/TurnDetailsDto.class
com/gameservice/outcome/util/ResponseStatus.class
com/gameservice/outcome/util/EmptyJsonBody.class
com/gameservice/outcome/repository/HandsRepository.class
com/gameservice/outcome/constant/EnumConstants.class
com/gameservice/outcome/constant/CashierServiceEndpoints.class
com/gameservice/turn/controller/TurnController.class
com/gameservice/outcome/dto/GameStartDto.class
com/gameservice/outcome/dto/PageInfoDto.class
com/gameservice/turn/dto/TossConfigDto.class
com/gameservice/outcome/dto/DealsDetailsDto.class
com/gameservice/outcome/dto/PaginatedResponseDto.class
com/gameservice/turn/constant/EnumConstants$SUITS.class
com/gameservice/outcome/model/TableModel.class
com/gameservice/distribution/service/impl/CardDistributionServiceImpl.class
com/gameservice/outcome/dto/PlayerPrizeDto.class
com/gameservice/outcome/constant/EnumConstants$CARDS_OWNER.class
com/gameservice/outcome/constant/ResponseCode.class
com/gameservice/distribution/dto/CardsGeneratedDto.class
com/gameservice/outcome/constant/EnumConstants$OUTCOME_TYPE.class
com/gameservice/outcome/repository/RoomRepository.class
com/gameservice/outcome/service/impl/DealsServiceImpl.class
com/gameservice/distribution/dto/PlayerCardsDto.class
com/gameservice/outcome/repository/ParticipantsRepository.class
com/gameservice/distribution/util/CardGenerationUtils.class
com/gameservice/turn/util/RummyUtils.class
com/gameservice/outcome/dto/DealsSaveDto.class
com/gameservice/tournament/model/TournamentModel.class
com/gameservice/outcome/constant/EnumConstants$DROP_TYPE.class
com/gameservice/outcome/service/impl/ParticipantsServiceImpl.class
com/gameservice/outcome/dto/TableDetailsDto.class
com/gameservice/outcome/service/DealsService.class
com/gameservice/outcome/service/impl/TableServiceImpl$1.class
com/gameservice/outcome/util/SearchOperation.class
com/gameservice/outcome/dto/GameDetailsDto.class
com/gameservice/turn/constant/EnumConstants.class
com/gameservice/outcome/service/impl/ReportServiceImpl.class
com/gameservice/outcome/model/GameModel.class
com/gameservice/outcome/model/DealsModel.class
com/gameservice/turn/service/impl/TurnServiceImpl.class
com/gameservice/outcome/specifications/TableSpecification$1.class
com/gameservice/outcome/dto/RummyGameDto.class
com/gameservice/outcome/specifications/TableSpecification.class
com/gameservice/outcome/dto/GameCreateDto.class
com/gameservice/outcome/constant/EnumConstants$PLAYER_STATUS.class
com/gameservice/outcome/service/impl/TableServiceImpl$2.class
com/gameservice/outcome/service/impl/GameServiceImpl.class
com/gameservice/outcome/service/GameService.class
com/gameservice/outcome/service/impl/TableServiceImpl.class
com/gameservice/outcome/dto/TableCreateDto.class
com/gameservice/outcome/model/ParticipantsModel.class
com/gameservice/outcome/repository/RejoinRepository.class
com/gameservice/outcome/model/RejoinModel.class
com/gameservice/turn/model/TurnModel.class
com/gameservice/outcome/constant/EnumConstants$DROPPED_BY.class
com/gameservice/outcome/repository/OutcomeRepository.class
com/gameservice/outcome/service/RoomService.class
com/gameservice/tournament/controller/TournamentController.class
com/gameservice/outcome/repository/DealsRepository.class
com/gameservice/outcome/dto/PageRequestDto.class
com/gameservice/outcome/service/ParticipantsService.class
com/gameservice/outcome/controller/RoomController.class
com/gameservice/distribution/dto/CardsDistributionConfigDto.class
com/gameservice/outcome/controller/TableController.class
com/gameservice/outcome/dto/BalanceDto.class
com/gameservice/outcome/service/ReportService.class
com/gameservice/outcome/constant/EnumConstants$TOURNAMENT_TYPE.class
com/gameservice/GameApplication.class
com/gameservice/outcome/util/CashierServiceUtils.class
com/gameservice/tournament/service/impl/TournamentServiceImpl.class
com/gameservice/outcome/constant/EnumConstants$GAME_STATUS.class
com/gameservice/outcome/constant/EnumConstants$RUMMY_TYPE.class
com/gameservice/outcome/constant/EnumConstants$TABLE_TYPE.class
com/gameservice/outcome/service/impl/ParticipantsServiceImpl$1.class
com/gameservice/outcome/dto/RoomCreateDto.class
com/gameservice/outcome/constant/EnumConstants$DECLARATION_TYPE.class
com/gameservice/turn/repository/TurnRepository.class
com/gameservice/turn/service/TurnService.class
com/gameservice/outcome/dto/PlayerCardsDto.class
com/gameservice/outcome/constant/EnumConstants$DECK_TYPE.class
com/gameservice/outcome/dto/TableOutcomeDto.class
com/gameservice/distribution/service/CardDistributionService.class
com/gameservice/turn/service/TossService.class
com/gameservice/outcome/constant/CommonConstant.class
com/gameservice/outcome/controller/GameController.class
com/gameservice/outcome/repository/TableRepository.class
com/gameservice/turn/service/impl/TossServiceImpl.class
com/gameservice/distribution/constant/EnumConstants.class
com/gameservice/outcome/dto/PageSuccessResponseDto.class
com/gameservice/distribution/dto/ParticipantsDto.class
com/gameservice/distribution/constant/CommonConstant.class
com/gameservice/outcome/dto/RummyPreviousDealOutcomeDto.class
com/gameservice/outcome/util/CashierServiceUtils$1.class
com/gameservice/outcome/dto/ParticipantsDetailsDto.class
com/gameservice/turn/constant/CommonConstant.class
com/gameservice/outcome/controller/DealsController.class
com/gameservice/outcome/constant/EnumConstants$GAME_SUB_TYPE.class
com/gameservice/outcome/controller/ParticipantsController.class
com/gameservice/outcome/util/SpecSearchCriteria.class
com/gameservice/tournament/exception/CustomException.class
com/gameservice/tournament/dto/TournamentDetailsDto.class
com/gameservice/outcome/constant/EnumConstants$SPLIT_TYPE.class
com/gameservice/outcome/constant/EnumConstants$GAME_TYPE.class
com/gameservice/turn/constant/ResponseMessage.class
com/gameservice/outcome/dto/RoomDto.class
com/gameservice/turn/dto/PlayersTurnDto.class
com/gameservice/outcome/util/CommonWebUtils.class
com/gameservice/turn/dto/TurnDetailsSaveDto.class
com/gameservice/outcome/model/BaseModel.class
com/gameservice/outcome/config/ModelMapperConfig.class
com/gameservice/distribution/exception/CustomException.class
com/gameservice/distribution/dto/CardsDistributedDto.class
com/gameservice/outcome/constant/ResponseMessage.class
com/gameservice/outcome/specifications/builder/SpecificationsBuilder.class
com/gameservice/outcome/util/RummyPrizeUtils.class
com/gameservice/outcome/util/CashierServiceUtils$2.class
com/gameservice/outcome/controller/ReportController.class
com/gameservice/tournament/service/TournamentService.class
com/gameservice/outcome/service/impl/RoomServiceImpl.class
com/gameservice/outcome/model/HandsModel.class
com/gameservice/outcome/exception/CustomException.class
com/gameservice/turn/dto/PlayersTossCardsDto.class
com/gameservice/outcome/dto/RummyGenerateOutcomeDto.class
com/gameservice/outcome/constant/EnumConstants$PICKED_FROM.class
